…
  group_by(dates) %>%
  summarize(TotalSteps=sum(steps,na.rm=TRUE))
```

```
## `summarise()` ungrouping output (override with `.groups` argument)
```

```r
TotalStepsDaily
```

```
## # A tibble: 61 x 2
##    dates      TotalSteps
##    <date>          <int>
##  1 2012-10-01          0
##  2 2012-10-02        126
##  3 2012-10-03      11352
##  4 2012-10-04      12116
##  5 2012-10-05      13294
##  6 2012-10-06      15420
##  7 2012-10-07      11015
##  8 2012-10-08          0
##  9 2012-10-09      12811
## 10 2012-10-10       9900
## # ... with 51 more rows
```
…
AvgStepInterval<- activityMain %>%
  group_by(interval) %>%
  summarize(AvgStep=mean(steps,na.rm=TRUE))
```

```
## `summarise()` ungrouping output (override with `.groups` argument)
```

```r
AvgStepInterval
```

```
## # A tibble: 288 x 2
##    interval AvgStep
##       <int>   <dbl>
##  1        0  1.72  
##  2        5  0.340 
##  3       10  0.132 
##  4       15  0.151 
##  5       20  0.0755
##  6       25  2.09  
##  7       30  0.528 
##  8       35  0.868 
##  9       40  0     
## 10       45  1.47  
## # ... with 278 more rows
```
…
  group_by(dates) %>%
  summarize(TotalSteps=sum(StepsFinal))
```

```
## `summarise()` ungrouping output (override with `.groups` argument)
```

```r
TotalStepsDaily2
```

```
## # A tibble: 61 x 2
##    dates      TotalSteps
##    <date>          <dbl>
##  1 2012-10-01     10766.
##  2 2012-10-02       126 
##  3 2012-10-03     11352 
##  4 2012-10-04     12116 
##  5 2012-10-05     13294 
##  6 2012-10-06     15420 
##  7 2012-10-07     11015 
##  8 2012-10-08     10766.
##  9 2012-10-09     12811 
## 10 2012-10-10      9900 
## # ... with 51 more rows
```
…
AvgStepInterval2<- activityMain %>%
  group_by(interval, DayType) %>%
  summarize(AvgStep=mean(steps,na.rm=TRUE))
```

```
## `summarise()` regrouping output by 'interval' (override with `.groups` argument)
```

```r
AvgStepInterval2
```

```
## # A tibble: 576 x 3
## # Groups:   interval [288]
##    interval DayType AvgStep
##       <int> <chr>     <dbl>
##  1        0 Weekday   2.33 
##  2        0 Weekend   0    
##  3        5 Weekday   0.462
##  4        5 Weekend   0    
##  5       10 Weekday   0.179
##  6       10 Weekend   0    
##  7       15 Weekday   0.205
##  8       15 Weekend   0    
##  9       20 Weekday   0.103
## 10       20 Weekend   0    
## # ... with 566 more rows
```
…
